^C:\USERS\USER\SOURCE\REPOS\SKILLBOX_PRACTICE14\SKILLBOX_PRACTICE14.CPP
C:\USERS\USER\SOURCE\REPOS\SKILLBOX_PRACTICE14\X64\DEBUG\VC143.PDB
C:\USERS\USER\SOURCE\REPOS\SKILLBOX_PRACTICE14\X64\DEBUG\VC143.IDB
C:\USERS\USER\SOURCE\REPOS\SKILLBOX_PRACTICE14\X64\DEBUG\SKILLBOX_PRACTICE14.OBJ
